,date,city,rent,product
0,2022-01-01,Bilecik,5,1909
1,2022-01-02,Ordu,14,1719
2,2022-01-03,Sinop,8,1383
3,2022-01-04,Çorum,2,1579
4,2022-01-05,Elazığ,9,1365
5,2022-01-06,Adıyaman,8,1403
6,2022-01-07,Ankara,13,1655
7,2022-01-08,Siirt,13,1261
8,2022-01-09,Sivas,9,1880
9,2022-01-10,Tekirdağ,10,1426
10,2022-01-11,Balıkesir,15,1010
11,2022-01-12,Hatay,2,1166
12,2022-01-13,Sivas,2,1938
13,2022-01-14,Hatay,17,1908
14,2022-01-15,Bingöl,5,1668
15,2022-01-16,Batman,5,1632
16,2022-01-17,Tunceli,16,1866
17,2022-01-18,Ankara,11,1205
18,2022-01-19,Bitlis,1,1664
19,2022-01-20,İstanbul,14,1450
20,2022-01-21,Antalya,2,1929
21,2022-01-22,Erzurum,8,1130
22,2022-01-23,Aksaray,9,1368
23,2022-01-24,Zonguldak,14,1478
24,2022-01-25,Adana,5,1006
25,2022-01-26,Gaziantep,17,1375
26,2022-01-27,Malatya,1,1110
27,2022-01-28,Manisa,16,1680
28,2022-01-29,Yozgat,14,1064
29,2022-01-30,Ağrı,16,1897
30,2022-01-31,Çankırı,6,1873
31,2022-02-01,Gaziantep,4,1486
32,2022-02-02,Yalova,3,1851
33,2022-02-03,Ordu,16,1716
34,2022-02-04,Hakkari,14,1799
35,2022-02-05,Hakkari,11,1838
36,2022-02-06,Balıkesir,16,1915
37,2022-02-07,Elazığ,16,1014
38,2022-02-08,Aksaray,2,1133
39,2022-02-09,Tunceli,10,1851
40,2022-02-10,Şanlıurfa,4,1235
41,2022-02-11,Kahramanmaraş,7,1316
42,2022-02-12,Bursa,6,1211
43,2022-02-13,Afyon,12,1735
44,2022-02-14,Uşak,13,1969
45,2022-02-15,Bursa,5,1723
46,2022-02-16,Ardahan,5,1243
47,2022-02-17,Bartın,14,1189
48,2022-02-18,Afyon,16,1228
49,2022-02-19,Düzce,14,1248
50,2022-02-20,Karabük,1,1820
51,2022-02-21,Düzce,9,1821
52,2022-02-22,Bolu,11,1969
53,2022-02-23,Batman,17,1017
54,2022-02-24,Manisa,14,1578
55,2022-02-25,Bursa,7,1080
56,2022-02-26,Çorum,9,1335
57,2022-02-27,Sinop,9,1947
58,2022-02-28,Burdur,13,1815
59,2022-03-01,Muğla,14,1030
60,2022-03-02,Edirne,7,1749
61,2022-03-03,Hatay,8,1206
62,2022-03-04,Gaziantep,9,1099
63,2022-03-05,Gümüşhane,14,1809
64,2022-03-06,Eskişehir,15,1826
65,2022-03-07,Düzce,1,1533
66,2022-03-08,Kırıkkale,3,1143
67,2022-03-09,Mardin,1,1852
68,2022-03-10,Isparta,6,1064
69,2022-03-11,Zonguldak,1,1558
70,2022-03-12,Muş,11,1781
71,2022-03-13,Bartın,6,1004
72,2022-03-14,Sinop,10,1556
73,2022-03-15,Malatya,5,1817
74,2022-03-16,Şırnak,2,1451
75,2022-03-17,Van,2,1180
76,2022-03-18,Bolu,1,1827
77,2022-03-19,Muş,12,1722
78,2022-03-20,Afyon,6,1347
79,2022-03-21,Tokat,12,1898
80,2022-03-22,Isparta,9,1623
81,2022-03-23,Düzce,1,1090
82,2022-03-24,Adana,2,1585
83,2022-03-25,Gaziantep,16,1776
84,2022-03-26,Ordu,4,1227
85,2022-03-27,Ağrı,16,1263
86,2022-03-28,Gaziantep,9,1672
87,2022-03-29,Niğde,1,1426
88,2022-03-30,Gümüşhane,16,1596
89,2022-03-31,Tokat,11,1894
90,2022-04-01,Tekirdağ,2,1395
91,2022-04-02,Niğde,12,1425
92,2022-04-03,Manisa,2,1362
93,2022-04-04,İçel (Mersin),2,1584
94,2022-04-05,Erzincan,15,1105
95,2022-04-06,Batman,13,1944
96,2022-04-07,Edirne,15,1064
97,2022-04-08,Karaman,4,1591
98,2022-04-09,Artvin,10,1277
99,2022-04-10,Gaziantep,8,1258
100,2022-04-11,Bartın,8,1282
101,2022-04-12,Gümüşhane,5,1700
102,2022-04-13,Tunceli,10,1241
103,2022-04-14,Tunceli,6,1656
104,2022-04-15,Burdur,12,1975
105,2022-04-16,Kahramanmaraş,15,1041
106,2022-04-17,Yalova,1,1845
107,2022-04-18,Bilecik,17,1417
108,2022-04-19,Muğla,10,1228
109,2022-04-20,Bitlis,14,1190
110,2022-04-21,Batman,4,1520
111,2022-04-22,Hatay,15,1043
112,2022-04-23,Gaziantep,9,1878
113,2022-04-24,Mardin,15,1960
114,2022-04-25,Artvin,6,1718
115,2022-04-26,Iğdır,10,1871
116,2022-04-27,Ankara,10,1975
117,2022-04-28,Hatay,14,1936
118,2022-04-29,Kayseri,17,1539
119,2022-04-30,Aksaray,16,1601
120,2022-05-01,Kastamonu,12,1187
121,2022-05-02,Ankara,8,1549
122,2022-05-03,Edirne,8,1557
123,2022-05-04,Antalya,6,1448
124,2022-05-05,Iğdır,9,1821
125,2022-05-06,Ordu,5,1113
126,2022-05-07,Adana,14,1501
127,2022-05-08,Osmaniye,4,1287
128,2022-05-09,Aydın,11,1569
129,2022-05-10,Adana,11,1298
130,2022-05-11,Elazığ,13,1773
131,2022-05-12,Denizli,12,1241
132,2022-05-13,Burdur,1,1762
133,2022-05-14,Aydın,6,1584
134,2022-05-15,Karabük,11,1529
135,2022-05-16,Bitlis,8,1181
136,2022-05-17,Hakkari,2,1427
137,2022-05-18,Ardahan,15,1165
138,2022-05-19,Adıyaman,10,1394
139,2022-05-20,Bayburt,16,1636
140,2022-05-21,Tokat,3,1175
141,2022-05-22,Tunceli,6,1701
142,2022-05-23,Kahramanmaraş,13,1391
143,2022-05-24,Kayseri,14,1201
144,2022-05-25,Tokat,1,1562
145,2022-05-26,Elazığ,17,1880
146,2022-05-27,Yozgat,2,1505
147,2022-05-28,Iğdır,6,1712
148,2022-05-29,Afyon,17,1637
149,2022-05-30,Ağrı,8,1383
150,2022-05-31,Ağrı,16,1068
151,2022-06-01,Rize,11,1671
152,2022-06-02,Antalya,16,1820
153,2022-06-03,Eskişehir,2,1977
154,2022-06-04,Kırklareli,15,1408
155,2022-06-05,Rize,14,1514
156,2022-06-06,Batman,5,1560
157,2022-06-07,Bolu,6,1575
158,2022-06-08,Kayseri,3,1170
159,2022-06-09,Kütahya,11,1344
160,2022-06-10,Giresun,16,1644
161,2022-06-11,Iğdır,7,1775
162,2022-06-12,Mardin,6,1177
163,2022-06-13,Karabük,6,1315
164,2022-06-14,Kırşehir,1,1425
165,2022-06-15,Bilecik,2,1317
166,2022-06-16,Bolu,9,1261
167,2022-06-17,Kahramanmaraş,15,1989
168,2022-06-18,Sakarya,15,1426
169,2022-06-19,Tokat,11,1830
170,2022-06-20,Hatay,1,1773
171,2022-06-21,Adana,2,1645
172,2022-06-22,Bolu,7,1304
173,2022-06-23,Konya,17,1604
174,2022-06-24,Ağrı,12,1059
175,2022-06-25,Adıyaman,3,1345
176,2022-06-26,Mardin,14,1581
177,2022-06-27,Bursa,7,1587
178,2022-06-28,İçel (Mersin),11,1486
179,2022-06-29,Ağrı,15,1335
180,2022-06-30,Çankırı,9,1283
181,2022-07-01,Kütahya,10,1602
182,2022-07-02,Karaman,15,1243
183,2022-07-03,Bilecik,2,1712
184,2022-07-04,Ankara,7,1277
185,2022-07-05,Sinop,10,1861
186,2022-07-06,Sinop,4,1139
187,2022-07-07,Düzce,13,1595
188,2022-07-08,Tokat,6,1725
189,2022-07-09,İzmir,14,1182
190,2022-07-10,Bitlis,13,1246
191,2022-07-11,Bursa,8,1423
192,2022-07-12,Çorum,2,1552
193,2022-07-13,Erzurum,8,1812
194,2022-07-14,Tokat,6,1141
195,2022-07-15,Batman,14,1459
196,2022-07-16,Isparta,5,1236
197,2022-07-17,Kayseri,12,1135
198,2022-07-18,Kahramanmaraş,1,1973
199,2022-07-19,Sivas,7,1501
200,2022-07-20,Yozgat,6,1748
201,2022-07-21,Çanakkale,5,1668
202,2022-07-22,Muş,15,1471
203,2022-07-23,Kocaeli,6,1105
204,2022-07-24,Bursa,12,1119
205,2022-07-25,Kastamonu,14,1781
206,2022-07-26,Çankırı,3,1564
207,2022-07-27,Antalya,4,1240
208,2022-07-28,İzmir,10,1423
209,2022-07-29,Diyarbakır,1,1550
210,2022-07-30,Tokat,11,1445
211,2022-07-31,Gaziantep,15,1785
212,2022-08-01,Sakarya,8,1955
213,2022-08-02,Diyarbakır,9,1562
214,2022-08-03,Van,4,1171
215,2022-08-04,Kayseri,8,1056
216,2022-08-05,Bilecik,1,1604
217,2022-08-06,Malatya,5,1548
218,2022-08-07,Bayburt,7,1698
219,2022-08-08,Rize,12,1633
220,2022-08-09,Osmaniye,3,1586
221,2022-08-10,Tunceli,14,1889
222,2022-08-11,Karaman,12,1035
223,2022-08-12,Şanlıurfa,8,1961
224,2022-08-13,Hakkari,13,1208
225,2022-08-14,Bilecik,13,1847
226,2022-08-15,İstanbul,5,1979
227,2022-08-16,Tekirdağ,11,1416
228,2022-08-17,Düzce,5,1417
229,2022-08-18,Kırıkkale,4,1699
230,2022-08-19,Bolu,16,1812
231,2022-08-20,İzmir,15,1769
232,2022-08-21,Burdur,9,1238
233,2022-08-22,Bartın,11,1003
234,2022-08-23,Konya,4,1163
235,2022-08-24,Artvin,15,1617
236,2022-08-25,Konya,1,1869
237,2022-08-26,Kars,8,1757
238,2022-08-27,Kastamonu,15,1750
239,2022-08-28,Bartın,2,1583
240,2022-08-29,Osmaniye,16,1569
241,2022-08-30,Manisa,11,1284
242,2022-08-31,Kırşehir,1,1791
243,2022-09-01,Hatay,7,1603
244,2022-09-02,Antalya,17,1216
245,2022-09-03,Tokat,17,1656
246,2022-09-04,İstanbul,14,1526
247,2022-09-05,Kayseri,3,1271
248,2022-09-06,Ardahan,6,1592
249,2022-09-07,Aksaray,11,1065
250,2022-09-08,Burdur,13,1078
251,2022-09-09,Çanakkale,10,1291
252,2022-09-10,Rize,4,1117
253,2022-09-11,Isparta,7,1440
254,2022-09-12,Çorum,2,1559
255,2022-09-13,Muğla,9,1474
256,2022-09-14,Bursa,17,1431
257,2022-09-15,Bolu,17,1709
258,2022-09-16,Kocaeli,12,1614
259,2022-09-17,Sinop,1,1007
260,2022-09-18,Şırnak,4,1916
261,2022-09-19,Ardahan,15,1488
262,2022-09-20,İstanbul,5,1493
263,2022-09-21,Adana,6,1292
264,2022-09-22,Muş,13,1829
265,2022-09-23,Kırıkkale,12,1853
266,2022-09-24,Kırklareli,3,1471
267,2022-09-25,Kahramanmaraş,17,1020
268,2022-09-26,Giresun,15,1934
269,2022-09-27,Elazığ,8,1054
270,2022-09-28,Şırnak,11,1180
271,2022-09-29,Şanlıurfa,9,1106
272,2022-09-30,Kastamonu,11,1200
273,2022-10-01,Kırklareli,14,1486
274,2022-10-02,Aksaray,10,1426
275,2022-10-03,Burdur,2,1815
276,2022-10-04,Erzincan,2,1494
277,2022-10-05,Bitlis,6,1248
278,2022-10-06,Rize,6,1974
279,2022-10-07,Hakkari,4,1206
280,2022-10-08,Sivas,11,1026
281,2022-10-09,Trabzon,14,1361
282,2022-10-10,Muğla,15,1733
283,2022-10-11,Çankırı,12,1401
284,2022-10-12,Kahramanmaraş,6,1618
285,2022-10-13,Eskişehir,9,1472
286,2022-10-14,Düzce,14,1018
287,2022-10-15,Iğdır,10,1359
288,2022-10-16,İstanbul,6,1655
289,2022-10-17,Kütahya,12,1644
290,2022-10-18,Ağrı,1,1831
291,2022-10-19,Tekirdağ,7,1474
292,2022-10-20,Muğla,2,1460
293,2022-10-21,Iğdır,5,1380
294,2022-10-22,İstanbul,12,1864
295,2022-10-23,Nevşehir,16,1203
296,2022-10-24,Karabük,6,1909
297,2022-10-25,Ardahan,8,1626
298,2022-10-26,Kastamonu,15,1655
299,2022-10-27,Kayseri,13,1604
300,2022-10-28,Kırklareli,2,1622
301,2022-10-29,Çankırı,16,1984
302,2022-10-30,Samsun,8,1517
303,2022-10-31,Erzurum,2,1533
304,2022-11-01,Bursa,12,1869
305,2022-11-02,Gümüşhane,4,1874
306,2022-11-03,Afyon,7,1618
307,2022-11-04,Mardin,1,1744
308,2022-11-05,Bilecik,10,1857
309,2022-11-06,Manisa,6,1465
310,2022-11-07,Sinop,1,1371
311,2022-11-08,Kayseri,5,1202
312,2022-11-09,Gaziantep,9,1689
313,2022-11-10,Muğla,10,1574
314,2022-11-11,Niğde,10,1339
315,2022-11-12,Erzincan,4,1563
316,2022-11-13,Şanlıurfa,3,1878
317,2022-11-14,Antalya,13,1815
318,2022-11-15,Aksaray,7,1862
319,2022-11-16,Aksaray,14,1233
320,2022-11-17,Manisa,12,1545
321,2022-11-18,Edirne,14,1652
322,2022-11-19,Kırklareli,11,1019
323,2022-11-20,İçel (Mersin),7,1226
324,2022-11-21,Siirt,12,1667
325,2022-11-22,Sivas,5,1774
326,2022-11-23,Batman,2,1031
327,2022-11-24,Kastamonu,15,1038
328,2022-11-25,Elazığ,16,1599
329,2022-11-26,Bolu,15,1881
330,2022-11-27,Giresun,7,1337
331,2022-11-28,Adana,9,1297
332,2022-11-29,Karabük,9,1666
333,2022-11-30,Balıkesir,4,1872
334,2022-12-01,Aksaray,3,1419
335,2022-12-02,İçel (Mersin),8,1886
336,2022-12-03,Eskişehir,10,1162
337,2022-12-04,Sivas,9,1819
338,2022-12-05,Şanlıurfa,6,1488
339,2022-12-06,Erzincan,11,1609
340,2022-12-07,Diyarbakır,17,1981
341,2022-12-08,Antalya,10,1386
342,2022-12-09,Şırnak,16,1080
343,2022-12-10,Kırşehir,6,1663
344,2022-12-11,Siirt,16,1617
345,2022-12-12,Rize,5,1745
346,2022-12-13,Bayburt,13,1732
347,2022-12-14,Giresun,11,1121
348,2022-12-15,Hakkari,9,1474
349,2022-12-16,Kastamonu,9,1030
350,2022-12-17,Amasya,15,1146
351,2022-12-18,Kütahya,8,1320
352,2022-12-19,Ankara,9,1220
353,2022-12-20,Karaman,12,1669
354,2022-12-21,Sinop,16,1467
355,2022-12-22,Konya,1,1451
356,2022-12-23,Batman,9,1333
357,2022-12-24,Uşak,7,1479
358,2022-12-25,Edirne,10,1604
359,2022-12-26,Manisa,15,1668
360,2022-12-27,Yalova,2,1215
361,2022-12-28,Gümüşhane,8,1848
362,2022-12-29,Osmaniye,5,1684
363,2022-12-30,Kayseri,4,1948
